%YAML 1.1
%TAG !u! tag:unity3d.com,2011:
--- !u!114 &11400000
MonoBehaviour:
  m_ObjectHideFlags: 0
  m_CorrespondingSourceObject: {fileID: 0}
  m_PrefabInstance: {fileID: 0}
  m_PrefabAsset: {fileID: 0}
  m_GameObject: {fileID: 0}
  m_Enabled: 1
  m_EditorHideFlags: 0
  m_Script: {fileID: 11500000, guid: ae3633580e32da94b92094de7cedbdc8, type: 3}
  m_Name: GDEF_7Tile
  m_EditorClassIdentifier: 
  blockCoords:
    keys:
    - x: -2
      y: 0
    - x: -2
      y: -1
    - x: -1
      y: -2
    - x: 1
      y: -2
    - x: 0
      y: -2
    - x: 2
      y: -1
    - x: 2
      y: 0
    - x: 2
      y: 1
    - x: 1
      y: 1
    - x: 0
      y: 2
    - x: -1
      y: 1
    - x: -2
      y: 1
    values: 060000000200000003000000210000000100000020000000300000001000000018000000080000000c00000004000000
