%YAML 1.1
%TAG !u! tag:unity3d.com,2011:
--- !u!114 &11400000
MonoBehaviour:
  m_ObjectHideFlags: 0
  m_CorrespondingSourceObject: {fileID: 0}
  m_PrefabInstance: {fileID: 0}
  m_PrefabAsset: {fileID: 0}
  m_GameObject: {fileID: 0}
  m_Enabled: 1
  m_EditorHideFlags: 0
  m_Script: {fileID: 11500000, guid: 3179e5ea5b2834243b567487d68e3b83, type: 3}
  m_Name: closest_player_in_range_target
  m_EditorClassIdentifier: 
  runtimeUnits: {fileID: 11400000, guid: fdaa24aed489e6b4dba2e2054158a674, type: 2}
  targetTags: 1
