%YAML 1.1
%TAG !u! tag:unity3d.com,2011:
--- !u!114 &11400000
MonoBehaviour:
  m_ObjectHideFlags: 0
  m_CorrespondingSourceObject: {fileID: 0}
  m_PrefabInstance: {fileID: 0}
  m_PrefabAsset: {fileID: 0}
  m_GameObject: {fileID: 0}
  m_Enabled: 1
  m_EditorHideFlags: 0
  m_Script: {fileID: 11500000, guid: 6dc71ce8d02fdac449c400d911d3a3be, type: 3}
  m_Name: multi_move_abil
  m_EditorClassIdentifier: 
  actions:
  - {fileID: 11400000, guid: c4156a26bd68f2d45a7fb6e16c98a49a, type: 2}
  - {fileID: 11400000, guid: c4156a26bd68f2d45a7fb6e16c98a49a, type: 2}
  - {fileID: 11400000, guid: c4156a26bd68f2d45a7fb6e16c98a49a, type: 2}
  maxCooldown: 0
  abilityInput: {fileID: 11400000, guid: e367f253614a7c246b9905063f79c6f1, type: 2}
